{
  "metadata": {
    "name": "Amazon RDS for PostgreSQL - Shared : -public-profilingtable_flow",
    "asset_type": "data_flow",
    "origin_country": "us",
    "asset_category": "USER",
    "created_at": "2021-09-29T14:08:20Z",
    "created": 1632924500164,
    "asset_id": "data_flow.AmazonRDSforPostgreSQLSharedpublicprofilingtableflow",
    "asset_attributes": [
      "data_flow"
    ]
  },
  "entity": {
    "data_flow": {
      "_entity_only": false
    }
  },
  "attachments": [
    {
      "asset_type": "data_flow",
      "name": "data_flow",
      "mime": "application/json",
      "data_partitions": 0,
      "test_doc": 0,
      "private_url": true,
      "object_key": "data_flow/Amazon RDS for PostgreSQL - Shared : -public-profilingtable_flow",
      "object_key_is_read_only": false,
      "is_partitioned": false,
      "created_at": "2021-09-29T14:08:20Z",
      "id": "81eeb03f-ae98-42bd-a0e0-ba350fb7557e",
      "is_managed": false,
      "is_referenced": true,
      "is_remote": false
    }
  ]
}